{
  "data": [
    {
      "name": "A Game of Thrones",
      "genero": "A Game of Thrones",
      "status": "A Game of Thrones",
      "suscripcion": "George R. R. Martin"
    },
    {
      "name":"A Game of Thrones",
      "genero": "A Clash of Kings",
      "status": "A Game of Thrones",
      "suscripcion": "George R. R. Martin"
    }
  ]
}